<svg width="24" height="24" viewBox="0 0 24 24" fill="none" xmlns="http://www.w3.org/2000/svg">
<path fill-rule="evenodd" clip-rule="evenodd" d="M8.25 4C7.28371 4 6.5 4.78371 6.5 5.75V19.2858L11.5618 15.6413C11.8235 15.4529 12.1765 15.4529 12.4382 15.6413L17.5 19.2858V5.75C17.5 4.78371 16.7163 4 15.75 4H8.25ZM5 5.75C5 3.95529 6.45529 2.5 8.25 2.5H15.75C17.5447 2.5 19 3.95529 19 5.75V20.75C19 21.0315 18.8424 21.2892 18.5919 21.4175C18.3414 21.5458 18.0402 21.5231 17.8118 21.3587L12 17.1742L6.18823 21.3587C5.95982 21.5231 5.65857 21.5458 5.40807 21.4175C5.15757 21.2892 5 21.0315 5 20.75V5.75Z" fill="#778390"/>
</svg>
