<svg width="24" height="24" viewBox="0 0 24 24" fill="none" xmlns="http://www.w3.org/2000/svg">
<path d="M18.25 21.5C18.0955 21.5 17.942 21.4525 17.812 21.3585L12 17.174L6.188 21.3585C5.959 21.523 5.658 21.546 5.4075 21.4175C5.1575 21.2895 5 21.0315 5 20.75V5.75C5 3.958 6.458 2.5 8.25 2.5H15.75C17.542 2.5 19 3.958 19 5.75V20.75C19 21.0315 18.8425 21.2895 18.592 21.4175C18.484 21.4725 18.367 21.5 18.25 21.5Z" fill="#778390"/>
</svg>
