<svg width="24" height="24" viewBox="0 0 24 24" fill="none" xmlns="http://www.w3.org/2000/svg">
<path fill-rule="evenodd" clip-rule="evenodd" d="M4.5 4V6.5H19.5V4H4.5ZM3 3.75C3 3.05979 3.55979 2.5 4.25 2.5H19.75C20.4402 2.5 21 3.05979 21 3.75V6.75C21 7.44021 20.4402 8 19.75 8H4.25C3.55979 8 3 7.44021 3 6.75V3.75Z" fill="#778390"/>
<path fill-rule="evenodd" clip-rule="evenodd" d="M5.5 7.25V18.25C5.5 19.2163 6.28371 20 7.25 20H16.75C17.7163 20 18.5 19.2163 18.5 18.25V7.25H20V18.25C20 20.0447 18.5447 21.5 16.75 21.5H7.25C5.45529 21.5 4 20.0447 4 18.25V7.25H5.5Z" fill="#778390"/>
<path fill-rule="evenodd" clip-rule="evenodd" d="M9 11.75C9 11.3358 9.33579 11 9.75 11H14.25C14.6642 11 15 11.3358 15 11.75C15 12.1642 14.6642 12.5 14.25 12.5H9.75C9.33579 12.5 9 12.1642 9 11.75Z" fill="#778390"/>
</svg>
