<svg width="24" height="24" viewBox="0 0 24 24" fill="none" xmlns="http://www.w3.org/2000/svg">
<path fill-rule="evenodd" clip-rule="evenodd" d="M3.75 7.5C3.61171 7.5 3.5 7.61171 3.5 7.75V19.75C3.5 19.8883 3.61171 20 3.75 20H20.25C20.3883 20 20.5 19.8883 20.5 19.75V7.75C20.5 7.61171 20.3883 7.5 20.25 7.5H3.75ZM2 7.75C2 6.78329 2.78329 6 3.75 6H20.25C21.2167 6 22 6.78329 22 7.75V19.75C22 20.7167 21.2167 21.5 20.25 21.5H3.75C2.78329 21.5 2 20.7167 2 19.75V7.75Z" fill="#778390"/>
<path fill-rule="evenodd" clip-rule="evenodd" d="M9.25 4.5C9.11171 4.5 9 4.61171 9 4.75V6.75H7.5V4.75C7.5 3.78329 8.28329 3 9.25 3H14.75C15.7167 3 16.5 3.78329 16.5 4.75V6.75H15V4.75C15 4.61171 14.8883 4.5 14.75 4.5H9.25Z" fill="#778390"/>
<path fill-rule="evenodd" clip-rule="evenodd" d="M21 16H2.75V14.5H21V16Z" fill="#778390"/>
<path d="M12.75 17H11.25C10.836 17 10.5 16.664 10.5 16.25V14.25C10.5 13.836 10.836 13.5 11.25 13.5H12.75C13.164 13.5 13.5 13.836 13.5 14.25V16.25C13.5 16.664 13.164 17 12.75 17Z" fill="#778390"/>
</svg>
