<svg width="24" height="24" viewBox="0 0 24 24" fill="none" xmlns="http://www.w3.org/2000/svg">
<path fill-rule="evenodd" clip-rule="evenodd" d="M8.29317 3.6161C8.69614 2.92507 9.43639 2.5 10.2365 2.5H13.7635C14.5637 2.5 15.304 2.92512 15.7069 3.61623L16.8058 5.5H18.75C20.5447 5.5 22 6.95529 22 8.75V18.25C22 20.0447 20.5447 21.5 18.75 21.5H5.25C3.45529 21.5 2 20.0447 2 18.25V8.75C2 6.95529 3.45529 5.5 5.25 5.5H7.19422L8.29317 3.6161C8.29314 3.61614 8.29319 3.61605 8.29317 3.6161ZM10.2365 4C9.96966 4 9.72295 4.14188 9.58891 4.37177L8.27283 6.6279C8.13843 6.85832 7.89175 7 7.625 7H5.25C4.28371 7 3.5 7.78371 3.5 8.75V18.25C3.5 19.2163 4.28371 20 5.25 20H18.75C19.7163 20 20.5 19.2163 20.5 18.25V8.75C20.5 7.78371 19.7163 7 18.75 7H16.375C16.1082 7 15.8616 6.85832 15.7272 6.6279L14.4112 4.3719C14.2771 4.14201 14.0303 4 13.7635 4H10.2365Z" fill="#778390"/>
<path fill-rule="evenodd" clip-rule="evenodd" d="M12 10C10.3431 10 9 11.3431 9 13C9 14.6569 10.3431 16 12 16C13.6569 16 15 14.6569 15 13C15 11.3431 13.6569 10 12 10ZM7.5 13C7.5 10.5147 9.51472 8.5 12 8.5C14.4853 8.5 16.5 10.5147 16.5 13C16.5 15.4853 14.4853 17.5 12 17.5C9.51472 17.5 7.5 15.4853 7.5 13Z" fill="#778390"/>
</svg>
