<svg width="24" height="24" viewBox="0 0 24 24" fill="none" xmlns="http://www.w3.org/2000/svg">
<path d="M6.5 6.50001C3.47122 6.50001 1 8.97123 1 12C1 15.0288 3.47122 17.5 6.5 17.5H8.75C8.84938 17.5014 8.94806 17.4831 9.04028 17.446C9.13251 17.4089 9.21645 17.3539 9.28723 17.2841C9.358 17.2144 9.41421 17.1312 9.45257 17.0395C9.49093 16.9478 9.51068 16.8494 9.51068 16.75C9.51068 16.6506 9.49093 16.5522 9.45257 16.4605C9.41421 16.3688 9.358 16.2857 9.28723 16.2159C9.21645 16.1461 9.13251 16.0911 9.04028 16.054C8.94806 16.017 8.84938 15.9986 8.75 16H6.5C4.28178 16 2.5 14.2182 2.5 12C2.5 9.78179 4.28178 8.00001 6.5 8.00001H8.75C8.84938 8.00142 8.94806 7.98306 9.04028 7.946C9.13251 7.90894 9.21645 7.85392 9.28723 7.78413C9.358 7.71435 9.41421 7.6312 9.45257 7.5395C9.49093 7.44781 9.51068 7.34941 9.51068 7.25001C9.51068 7.15062 9.49093 7.05222 9.45257 6.96052C9.41421 6.86883 9.358 6.78568 9.28723 6.71589C9.21645 6.64611 9.13251 6.59109 9.04028 6.55403C8.94806 6.51697 8.84938 6.49861 8.75 6.50001H6.5ZM15.25 6.50001C15.1506 6.49861 15.0519 6.51697 14.9597 6.55403C14.8675 6.59109 14.7836 6.64611 14.7128 6.71589C14.642 6.78568 14.5858 6.86883 14.5474 6.96052C14.5091 7.05222 14.4893 7.15062 14.4893 7.25001C14.4893 7.34941 14.5091 7.44781 14.5474 7.5395C14.5858 7.6312 14.642 7.71435 14.7128 7.78413C14.7836 7.85392 14.8675 7.90894 14.9597 7.946C15.0519 7.98306 15.1506 8.00142 15.25 8.00001H17.5C19.7182 8.00001 21.5 9.78179 21.5 12C21.5 14.2182 19.7182 16 17.5 16H15.25C15.1506 15.9986 15.0519 16.017 14.9597 16.054C14.8675 16.0911 14.7836 16.1461 14.7128 16.2159C14.642 16.2857 14.5858 16.3688 14.5474 16.4605C14.5091 16.5522 14.4893 16.6506 14.4893 16.75C14.4893 16.8494 14.5091 16.9478 14.5474 17.0395C14.5858 17.1312 14.642 17.2144 14.7128 17.2841C14.7836 17.3539 14.8675 17.4089 14.9597 17.446C15.0519 17.4831 15.1506 17.5014 15.25 17.5H17.5C20.5288 17.5 23 15.0288 23 12C23 8.97123 20.5288 6.50001 17.5 6.50001H15.25ZM5.75 11.25C5.65062 11.2486 5.55194 11.267 5.45972 11.304C5.36749 11.3411 5.28355 11.3961 5.21277 11.4659C5.142 11.5357 5.08579 11.6188 5.04743 11.7105C5.00907 11.8022 4.98932 11.9006 4.98932 12C4.98932 12.0994 5.00907 12.1978 5.04743 12.2895C5.08579 12.3812 5.142 12.4644 5.21277 12.5341C5.28355 12.6039 5.36749 12.6589 5.45972 12.696C5.55194 12.7331 5.65062 12.7514 5.75 12.75H18.25C18.3494 12.7514 18.4481 12.7331 18.5403 12.696C18.6325 12.6589 18.7164 12.6039 18.7872 12.5341C18.858 12.4644 18.9142 12.3812 18.9526 12.2895C18.9909 12.1978 19.0107 12.0994 19.0107 12C19.0107 11.9006 18.9909 11.8022 18.9526 11.7105C18.9142 11.6188 18.858 11.5357 18.7872 11.4659C18.7164 11.3961 18.6325 11.3411 18.5403 11.304C18.4481 11.267 18.3494 11.2486 18.25 11.25H5.75Z" fill="#778390"/>
</svg>
