<svg width="24" height="24" viewBox="0 0 24 24" fill="none" xmlns="http://www.w3.org/2000/svg">
<path fill-rule="evenodd" clip-rule="evenodd" d="M12 3.5C7.30558 3.5 3.5 7.30558 3.5 12C3.5 16.6944 7.30558 20.5 12 20.5C16.6944 20.5 20.5 16.6944 20.5 12C20.5 7.30558 16.6944 3.5 12 3.5ZM2 12C2 6.47715 6.47715 2 12 2C17.5228 2 22 6.47715 22 12C22 17.5228 17.5228 22 12 22C6.47715 22 2 17.5228 2 12Z" fill="#778390"/>
<path fill-rule="evenodd" clip-rule="evenodd" d="M11.375 8.25C10.6157 8.25 10 8.86571 10 9.625C10 10.3843 10.6157 11 11.375 11H12.375C14.1007 11 15.5 12.3993 15.5 14.125C15.5 15.8507 14.1007 17.25 12.375 17.25H11.25C9.97022 17.25 8.89664 16.3768 8.58872 15.1945C8.48431 14.7937 8.72462 14.3841 9.12546 14.2797C9.5263 14.1753 9.93588 14.4156 10.0403 14.8165C10.1804 15.3542 10.6698 15.75 11.25 15.75H12.375C13.2723 15.75 14 15.0223 14 14.125C14 13.2277 13.2723 12.5 12.375 12.5H11.375C9.78729 12.5 8.5 11.2127 8.5 9.625C8.5 8.03729 9.78729 6.75 11.375 6.75H12.25C13.5209 6.75 14.5889 7.6115 14.905 8.78132C15.0131 9.18119 14.7765 9.59295 14.3767 9.70102C13.9768 9.8091 13.5651 9.57255 13.457 9.17268C13.3131 8.6405 12.8261 8.25 12.25 8.25H11.375Z" fill="#778390"/>
<path fill-rule="evenodd" clip-rule="evenodd" d="M11.75 5.5C12.1642 5.5 12.5 5.83579 12.5 6.25V7.5C12.5 7.91421 12.1642 8.25 11.75 8.25C11.3358 8.25 11 7.91421 11 7.5V6.25C11 5.83579 11.3358 5.5 11.75 5.5Z" fill="#778390"/>
<path fill-rule="evenodd" clip-rule="evenodd" d="M11.75 15.9C12.1642 15.9 12.5 16.2358 12.5 16.65V17.75C12.5 18.1642 12.1642 18.5 11.75 18.5C11.3358 18.5 11 18.1642 11 17.75V16.65C11 16.2358 11.3358 15.9 11.75 15.9Z" fill="#778390"/>
</svg>
