<svg width="24" height="24" viewBox="0 0 24 24" fill="none" xmlns="http://www.w3.org/2000/svg">
<path fill-rule="evenodd" clip-rule="evenodd" d="M5.75 4.5C5.05971 4.5 4.5 5.05971 4.5 5.75V18.25C4.5 18.9403 5.05971 19.5 5.75 19.5H18.25C18.9403 19.5 19.5 18.9403 19.5 18.25V8.0868L15.4649 4.5H5.75ZM3 5.75C3 4.23129 4.23129 3 5.75 3H15.75C15.9337 3 16.111 3.06741 16.2483 3.18944L20.7483 7.18944C20.9084 7.33177 21 7.53577 21 7.75V18.25C21 19.7687 19.7687 21 18.25 21H5.75C4.23129 21 3 19.7687 3 18.25V5.75Z" fill="#778390"/>
<path fill-rule="evenodd" clip-rule="evenodd" d="M7.25 3C7.66421 3 8 3.33579 8 3.75V7.25C8 7.38829 8.11171 7.5 8.25 7.5H14.25C14.3883 7.5 14.5 7.38829 14.5 7.25V3.75C14.5 3.33579 14.8358 3 15.25 3C15.6642 3 16 3.33579 16 3.75V7.25C16 8.21671 15.2167 9 14.25 9H8.25C7.28329 9 6.5 8.21671 6.5 7.25V3.75C6.5 3.33579 6.83579 3 7.25 3Z" fill="#778390"/>
<path fill-rule="evenodd" clip-rule="evenodd" d="M6 13.75C6 12.7833 6.78329 12 7.75 12H16.25C17.2167 12 18 12.7833 18 13.75V20.25C18 20.6642 17.6642 21 17.25 21C16.8358 21 16.5 20.6642 16.5 20.25V13.75C16.5 13.6117 16.3883 13.5 16.25 13.5H7.75C7.61171 13.5 7.5 13.6117 7.5 13.75V20.25C7.5 20.6642 7.16421 21 6.75 21C6.33579 21 6 20.6642 6 20.25V13.75Z" fill="#778390"/>
</svg>
