<svg width="24" height="24" viewBox="0 0 24 24" fill="none" xmlns="http://www.w3.org/2000/svg">
<path d="M16.7383 2.98923C16.5395 2.99233 16.3501 3.07419 16.2117 3.21683C16.0733 3.35947 15.9971 3.55122 16 3.74997V18.9394L13.7802 16.7197C13.7111 16.6477 13.6284 16.5903 13.5368 16.5507C13.4452 16.5111 13.3466 16.4902 13.2468 16.4892C13.147 16.4881 13.0481 16.507 12.9557 16.5448C12.8633 16.5825 12.7794 16.6382 12.7088 16.7088C12.6383 16.7794 12.5825 16.8633 12.5448 16.9557C12.507 17.0481 12.4881 17.147 12.4892 17.2468C12.4902 17.3466 12.5111 17.4452 12.5507 17.5368C12.5903 17.6284 12.6477 17.7111 12.7197 17.7802L16.2197 21.2802C16.3604 21.4208 16.5511 21.4998 16.75 21.4998C16.9489 21.4998 17.1396 21.4208 17.2802 21.2802L20.7802 17.7802C20.8522 17.7111 20.9097 17.6284 20.9493 17.5368C20.9889 17.4452 21.0098 17.3466 21.0108 17.2468C21.0118 17.147 20.9929 17.0481 20.9552 16.9557C20.9175 16.8633 20.8617 16.7794 20.7911 16.7088C20.7206 16.6382 20.6367 16.5825 20.5443 16.5448C20.4519 16.507 20.3529 16.4881 20.2531 16.4892C20.1534 16.4902 20.0548 16.5111 19.9632 16.5507C19.8716 16.5903 19.7888 16.6477 19.7197 16.7197L17.5 18.9394V3.74997C17.5014 3.64959 17.4827 3.54994 17.4449 3.45692C17.4071 3.36391 17.3511 3.27943 17.28 3.20849C17.209 3.13754 17.1244 3.08158 17.0314 3.04392C16.9383 3.00626 16.8386 2.98766 16.7383 2.98923ZM7.74998 3.99899C7.44548 3.99899 7.17064 4.18281 7.05564 4.46481L4.80564 9.96481C4.64864 10.3483 4.8323 10.7868 5.2158 10.9433C5.5993 11.1013 6.03781 10.9172 6.19431 10.5332L6.41306 9.99899H9.08689L9.30564 10.5332C9.42464 10.8237 9.70545 10.999 10.001 10.999C10.0955 10.999 10.1912 10.9818 10.2842 10.9433C10.6672 10.7868 10.8513 10.3483 10.6943 9.96481L8.44431 4.46481C8.32931 4.18281 8.05448 3.99899 7.74998 3.99899ZM7.74998 6.73044L8.47361 8.49899H7.02634L7.74998 6.73044ZM5.99998 13.5C5.58598 13.5 5.24998 13.8355 5.24998 14.25C5.24998 14.6645 5.58598 15 5.99998 15H8.13376L5.36814 19.3476C5.22114 19.5786 5.21173 19.8713 5.34373 20.1113C5.47473 20.3513 5.72695 20.5 6.00095 20.5H9.50095C9.91495 20.5 10.251 20.1645 10.251 19.75C10.251 19.3355 9.91495 19 9.50095 19H7.36619L10.1328 14.6523C10.2798 14.4213 10.2892 14.1286 10.1572 13.8886C10.0262 13.6486 9.77398 13.5 9.49998 13.5H5.99998Z" fill="#778390"/>
</svg>
