<svg width="24" height="24" viewBox="0 0 24 24" fill="none" xmlns="http://www.w3.org/2000/svg">
<path fill-rule="evenodd" clip-rule="evenodd" d="M5.75 4.5C5.05971 4.5 4.5 5.05971 4.5 5.75V18.25C4.5 18.9403 5.05971 19.5 5.75 19.5H18.25C18.9403 19.5 19.5 18.9403 19.5 18.25V5.75C19.5 5.05971 18.9403 4.5 18.25 4.5H5.75ZM3 5.75C3 4.23129 4.23129 3 5.75 3H18.25C19.7687 3 21 4.23129 21 5.75V18.25C21 19.7687 19.7687 21 18.25 21H5.75C4.23129 21 3 19.7687 3 18.25V5.75Z" fill="#778390"/>
</svg>
