<svg width="24" height="24" viewBox="0 0 24 24" fill="none" xmlns="http://www.w3.org/2000/svg">
<path fill-rule="evenodd" clip-rule="evenodd" d="M12 2.5C12.2841 2.5 12.5438 2.6605 12.6708 2.91459L15.2474 8.0677L21.3641 9.00872C21.6434 9.0517 21.8749 9.24806 21.9628 9.51666C22.0507 9.78526 21.9802 10.0805 21.7804 10.2803L17.5491 14.5116L18.4913 20.636C18.5343 20.9154 18.4165 21.1953 18.1866 21.3599C17.9567 21.5244 17.6538 21.5457 17.4031 21.4149L12 18.5959L6.59694 21.4149C6.34628 21.5457 6.04336 21.5244 5.81346 21.3599C5.58356 21.1953 5.46575 20.9154 5.50874 20.636L6.45095 14.5116L2.21969 10.2803C2.01984 10.0805 1.94931 9.78526 2.03724 9.51666C2.12517 9.24806 2.35664 9.0517 2.63598 9.00872L8.75265 8.0677L11.3292 2.91459C11.4562 2.6605 11.7159 2.5 12 2.5ZM12 4.92705L9.92084 9.08541C9.81205 9.30299 9.60449 9.45429 9.36406 9.49128L4.32691 10.2662L7.78035 13.7197C7.94928 13.8886 8.02763 14.1279 7.9913 14.364L7.21657 19.3998L11.6531 17.0851C11.8705 16.9716 12.1296 16.9716 12.3469 17.0851L16.7835 19.3998L16.0087 14.364C15.9724 14.1279 16.0508 13.8886 16.2197 13.7197L19.6731 10.2662L14.636 9.49128C14.3955 9.45429 14.188 9.30299 14.0792 9.08541L12 4.92705Z" fill="#778390"/>
</svg>
