<svg width="24" height="24" viewBox="0 0 24 24" fill="none" xmlns="http://www.w3.org/2000/svg">
<path d="M21.965 9.515C21.875 9.25 21.645 9.05 21.365 9.01L15.84 8.16L14.535 9.465C14.57 9.48 14.6 9.485 14.635 9.49L19.675 10.265L16.22 13.72C16.05 13.89 15.97 14.13 16.01 14.365L16.785 19.4L12.345 17.085C12.24 17.03 12.12 17 12 17C11.88 17 11.76 17.03 11.655 17.085L7.215 19.4L7.69 16.31L5.9 18.1L5.51 20.635C5.465 20.915 5.585 21.195 5.815 21.36C6.045 21.525 6.345 21.545 6.595 21.415L12 18.595L17.405 21.415C17.51 21.47 17.63 21.5 17.75 21.5C17.905 21.5 18.055 21.455 18.185 21.36C18.415 21.195 18.535 20.915 18.49 20.635L17.55 14.51L21.78 10.28C21.98 10.08 22.05 9.785 21.965 9.515ZM7.44 13.38L4.325 10.265L9.365 9.49C9.605 9.455 9.81 9.305 9.92 9.085L12 4.925L13.3 7.52L14.415 6.405L12.67 2.915C12.545 2.66 12.285 2.5 12 2.5C11.715 2.5 11.455 2.66 11.33 2.915L8.755 8.07L2.635 9.01C2.355 9.05 2.125 9.25 2.035 9.515C1.95 9.785 2.02 10.08 2.22 10.28L6.38 14.44L7.44 13.38Z" fill="#778390"/>
<path fill-rule="evenodd" clip-rule="evenodd" d="M21.7803 2.21967C22.0732 2.51256 22.0732 2.98744 21.7803 3.28033L3.28033 21.7803C2.98744 22.0732 2.51257 22.0732 2.21967 21.7803C1.92678 21.4874 1.92678 21.0126 2.21967 20.7197L20.7197 2.21967C21.0126 1.92678 21.4874 1.92678 21.7803 2.21967Z" fill="#778390"/>
</svg>
