<svg width="24" height="24" viewBox="0 0 24 24" fill="none" xmlns="http://www.w3.org/2000/svg">
<path fill-rule="evenodd" clip-rule="evenodd" d="M8.5 5.5C8.5 3.56679 10.0668 2 12 2C13.9332 2 15.5 3.56679 15.5 5.5V5.75H14V5.5C14 4.39521 13.1048 3.5 12 3.5C10.8952 3.5 10 4.39521 10 5.5V5.75H8.5V5.5Z" fill="#778390"/>
<path fill-rule="evenodd" clip-rule="evenodd" d="M2.5 5.75C2.5 5.33579 2.83579 5 3.25 5H20.75C21.1642 5 21.5 5.33579 21.5 5.75C21.5 6.16421 21.1642 6.5 20.75 6.5H3.25C2.83579 6.5 2.5 6.16421 2.5 5.75Z" fill="#778390"/>
<path fill-rule="evenodd" clip-rule="evenodd" d="M10.25 9C10.6642 9 11 9.33579 11 9.75V17.25C11 17.6642 10.6642 18 10.25 18C9.83579 18 9.5 17.6642 9.5 17.25V9.75C9.5 9.33579 9.83579 9 10.25 9Z" fill="#778390"/>
<path fill-rule="evenodd" clip-rule="evenodd" d="M13.75 9C14.1642 9 14.5 9.33579 14.5 9.75V17.25C14.5 17.6642 14.1642 18 13.75 18C13.3358 18 13 17.6642 13 17.25V9.75C13 9.33579 13.3358 9 13.75 9Z" fill="#778390"/>
<path fill-rule="evenodd" clip-rule="evenodd" d="M19.0723 5.00349C19.4846 5.0434 19.7864 5.40998 19.7465 5.82227L18.421 19.5146C18.2848 20.9246 17.1001 22 15.684 22H8.3155C6.89983 22 5.71469 20.9242 5.57849 19.5147L4.25349 5.82224C4.21359 5.40995 4.51547 5.04338 4.92776 5.00349C5.34005 4.96359 5.70662 5.26547 5.74651 5.67776L7.07151 19.3703C7.13337 20.0107 7.67222 20.5 8.3155 20.5H15.684C16.3278 20.5 16.8661 20.0113 16.928 19.3704L18.2535 5.67773C18.2934 5.26545 18.66 4.96358 19.0723 5.00349Z" fill="#778390"/>
</svg>
