<svg width="24" height="24" viewBox="0 0 24 24" fill="none" xmlns="http://www.w3.org/2000/svg">
<path fill-rule="evenodd" clip-rule="evenodd" d="M12 4.25C12 3.83579 12.3358 3.5 12.75 3.5H19.75C20.1642 3.5 20.5 3.83579 20.5 4.25V11.25C20.5 11.6642 20.1642 12 19.75 12C19.3358 12 19 11.6642 19 11.25V5H12.75C12.3358 5 12 4.66421 12 4.25Z" fill="#778390"/>
<path fill-rule="evenodd" clip-rule="evenodd" d="M19.7803 4.21967C20.0732 4.51256 20.0732 4.98744 19.7803 5.28033L4.78033 20.2803C4.48744 20.5732 4.01256 20.5732 3.71967 20.2803C3.42678 19.9874 3.42678 19.5126 3.71967 19.2197L18.7197 4.21967C19.0126 3.92678 19.4874 3.92678 19.7803 4.21967Z" fill="#778390"/>
</svg>
